Helpful tips for your project
…
We see 2 Fast 2 Furious is now gone. The filter() code says keep only rows in this data set in which the variable millions is not NA; ! means NOT in computer programming.

log10 transformations

You might find that you need to create a new variable and add it to your data frame. For instance, suppose we wanted to log base 10 transform the millions variable in the movies data. (millions is the amount of $ each movie made). The following adds the variable log10_mill to the movies data, which is the log 10 of the millions variable:

movies <- movies %>%
  mutate(log10_mill = log10(millions))
movies

## # A tibble: 139 x 7
##    name             score rating type       millions over200 log10_mill
##    <chr>            <dbl> <chr>  <chr>         <dbl>   <int>      <dbl>
##  1 28 Days Later     78.2 R      horror        45.1        0      1.65 
##  2 A Guy Thing       39.5 PG-13  rom comedy    15.5        0      1.19 
##  3 A Man Apart       42.9 R      action        26.2        0      1.42 
##  4 A Mighty Wind     79.9 PG-13  comedy        17.8        0      1.25 
##  5 Agent Cody Banks  57.9 PG     action        47.8        0      1.68 
##  6 Alex & Emma       35.1 PG-13  rom comedy    14.2        0      1.15 
##  7 American Wedding  50.7 R      comedy       104.         0      2.02 
##  8 Anger Management  62.6 PG-13  comedy       134.         0      2.13 
##  9 Anything Else     63.3 R      rom comedy     3.21       0      0.507
## 10 Bad Boys II       38.1 R      action       138.         0      2.14 
## #  with 129 more rows
…
Computing proportions?

How do I compute proportions? By using a group_by(), but not followed by a summarize() as is often the case, but rather a mutate(). So say we compute the total revenue millions for each movie rating and type:

rating_by_type_millions <- movies %>% 
  group_by(rating, type) %>% 
  summarize(millions = sum(millions)) %>% 
  arrange(rating, type)

rating_by_type_millions

## # A tibble: 26 x 3
## # Groups:   rating [4]
##    rating type      millions
##    <chr>  <chr>        <dbl>
##  1 G      animated    496.  
##  2 PG     action       47.8 
##  3 PG     adventure   112.  
##  4 PG     animated     65.7 
##  5 PG     comedy      830.  
##  6 PG     drama       161.  
##  7 PG     fantasy     147.  
##  8 PG     musical       4.93
##  9 PG-13  action     1479.  
## 10 PG-13  adventure    65.7 
## #  with 16 more rows

Say within each movie rating (G, PG, PG-13, R), we want to know the proportion of total_millions that made by each movie type (animated, action, comedy, etc). We can:

rating_by_type_millions %>% 
  group_by(rating) %>% 
  mutate(
    # Compute a new column of the sum of millions split by rating:
    total_millions = sum(millions),
    # Compute the proportion within each rating:
    prop = millions/total_millions
    )

## # A tibble: 26 x 5
## # Groups:   rating [4]
##    rating type      millions total_millions    prop
##    <chr>  <chr>        <dbl>          <dbl>   <dbl>
##  1 G      animated    496.             496. 1      
##  2 PG     action       47.8           1368. 0.0349 
##  3 PG     adventure   112.            1368. 0.0817 
##  4 PG     animated     65.7           1368. 0.0480 
##  5 PG     comedy      830.            1368. 0.606  
##  6 PG     drama       161.            1368. 0.118  
##  7 PG     fantasy     147.            1368. 0.108  
##  8 PG     musical       4.93          1368. 0.00360
##  9 PG-13  action     1479.            4174. 0.354  
## 10 PG-13  adventure    65.7           4174. 0.0157 
## #  with 16 more rows
…
